(kicad_sch (version 20230121) (generator eeschema)

  (uuid 699cff75-27a7-4d21-bcec-7058f4a5c972)

  (paper "A4")

  (title_block
    (title "Beacon (${VARIANT})")
    (rev "${GIT_VERSION}")
    (company "NLighten Systems, LLC")
  )

  (lib_symbols
    (symbol "Device:C_Small" (pin_numbers hide) (pin_names (offset 0.254) hide) (in_bom yes) (on_board yes)
      (property "Reference" "C" (at 0.254 1.778 0)
        (effects (font (size 1.27 1.27)) (justify left))
      )
      (property "Value" "C_Small" (at 0.254 -2.032 0)
        (effects (font (size 1.27 1.27)) (justify left))
      )
      (property "Footprint" "" (at 0 0 0)
        (effects (font (size 1.27 1.27)) hide)
      )
      (property "Datasheet" "~" (at 0 0 0)
        (effects (font (size 1.27 1.27)) hide)
      )
      (property "ki_keywords" "capacitor cap" (at 0 0 0)
        (effects (font (size 1.27 1.27)) hide)
      )
      (property "ki_description" "Unpolarized capacitor, small symbol" (at 0 0 0)
        (effects (font (size 1.27 1.27)) hide)
      )
      (property "ki_fp_filters" "C_*" (at 0 0 0)
        (effects (font (size 1.27 1.27)) hide)
      )
      (symbol "C_Small_0_1"
        (polyline
          (pts
            (xy -1.524 -0.508)
            (xy 1.524 -0.508)
          )
          (stroke (width 0.3302) (type default))
          (fill (type none))
        )
        (polyline
          (pts
            (xy -1.524 0.508)
            (xy 1.524 0.508)
          )
          (stroke (width 0.3048) (type default))
          (fill (type none))
        )
      )
      (symbol "C_Small_1_1"
        (pin passive line (at 0 2.54 270) (length 2.032)
          (name "~" (effects (font (size 1.27 1.27))))
          (number "1" (effects (font (size 1.27 1.27))))
        )
        (pin passive line (at 0 -2.54 90) (length 2.032)
          (name "~" (effects (font (size 1.27 1.27))))
          (number "2" (effects (font (size 1.27 1.27))))
        )
      )
    )
    (symbol "Security:ATECC608A-SSHDA" (in_bom yes) (on_board yes)
      (property "Reference" "U" (at 3.81 6.35 0)
        (effects (font (size 1.27 1.27)))
      )
      (property "Value" "ATECC608A-SSHDA" (at 10.16 -6.35 0)
        (effects (font (size 1.27 1.27)))
      )
      (property "Footprint" "Package_SO:SOIC-8_3.9x4.9mm_P1.27mm" (at 0 0 0)
        (effects (font (size 1.27 1.27)) hide)
      )
      (property "Datasheet" "http://ww1.microchip.com/downloads/en/DeviceDoc/ATECC608A-CryptoAuthentication-Device-Summary-Data-Sheet-DS40001977B.pdf" (at 3.81 6.35 0)
        (effects (font (size 1.27 1.27)) hide)
      )
      (property "ki_keywords" "Cryptographic coprocessor" (at 0 0 0)
        (effects (font (size 1.27 1.27)) hide)
      )
      (property "ki_description" "Cryptographic Co-Processor with Secure Hardware-based 16 Key Storage, ECDSA and ECDH support, I2C, SOIC-8" (at 0 0 0)
        (effects (font (size 1.27 1.27)) hide)
      )
      (property "ki_fp_filters" "SOIC*8*3.9x4.9mm*P1.27mm*" (at 0 0 0)
        (effects (font (size 1.27 1.27)) hide)
      )
      (symbol "ATECC608A-SSHDA_0_1"
        (rectangle (start -5.08 5.08) (end 5.08 -5.08)
          (stroke (width 0.254) (type default))
          (fill (type background))
        )
      )
      (symbol "ATECC608A-SSHDA_1_1"
        (pin no_connect line (at -5.08 2.54 0) (length 2.54) hide
          (name "NC" (effects (font (size 1.27 1.27))))
          (number "1" (effects (font (size 1.27 1.27))))
        )
        (pin no_connect line (at -5.08 0 0) (length 2.54) hide
          (name "NC" (effects (font (size 1.27 1.27))))
          (number "2" (effects (font (size 1.27 1.27))))
        )
        (pin no_connect line (at -5.08 -2.54 0) (length 2.54) hide
          (name "NC" (effects (font (size 1.27 1.27))))
          (number "3" (effects (font (size 1.27 1.27))))
        )
        (pin power_in line (at 0 -7.62 90) (length 2.54)
          (name "GND" (effects (font (size 1.27 1.27))))
          (number "4" (effects (font (size 1.27 1.27))))
        )
        (pin bidirectional line (at 7.62 2.54 180) (length 2.54)
          (name "SDA" (effects (font (size 1.27 1.27))))
          (number "5" (effects (font (size 1.27 1.27))))
        )
        (pin input line (at 7.62 -2.54 180) (length 2.54)
          (name "SCL" (effects (font (size 1.27 1.27))))
          (number "6" (effects (font (size 1.27 1.27))))
        )
        (pin no_connect line (at 5.08 0 180) (length 2.54) hide
          (name "NC" (effects (font (size 1.27 1.27))))
          (number "7" (effects (font (size 1.27 1.27))))
        )
        (pin power_in line (at 0 7.62 270) (length 2.54)
          (name "VCC" (effects (font (size 1.27 1.27))))
          (number "8" (effects (font (size 1.27 1.27))))
        )
      )
    )
    (symbol "power:+3.3V" (power) (pin_names (offset 0)) (in_bom yes) (on_board yes)
      (property "Reference" "#PWR" (at 0 -3.81 0)
        (effects (font (size 1.27 1.27)) hide)
      )
      (property "Value" "+3.3V" (at 0 3.556 0)
        (effects (font (size 1.27 1.27)))
      )
      (property "Footprint" "" (at 0 0 0)
        (effects (font (size 1.27 1.27)) hide)
      )
      (property "Datasheet" "" (at 0 0 0)
        (effects (font (size 1.27 1.27)) hide)
      )
      (property "ki_keywords" "global power" (at 0 0 0)
        (effects (font (size 1.27 1.27)) hide)
      )
      (property "ki_description" "Power symbol creates a global label with name \"+3.3V\"" (at 0 0 0)
        (effects (font (size 1.27 1.27)) hide)
      )
      (symbol "+3.3V_0_1"
        (polyline
          (pts
            (xy -0.762 1.27)
            (xy 0 2.54)
          )
          (stroke (width 0) (type default))
          (fill (type none))
        )
        (polyline
          (pts
            (xy 0 0)
            (xy 0 2.54)
          )
          (stroke (width 0) (type default))
          (fill (type none))
        )
        (polyline
          (pts
            (xy 0 2.54)
            (xy 0.762 1.27)
          )
          (stroke (width 0) (type default))
          (fill (type none))
        )
      )
      (symbol "+3.3V_1_1"
        (pin power_in line (at 0 0 90) (length 0) hide
          (name "+3.3V" (effects (font (size 1.27 1.27))))
          (number "1" (effects (font (size 1.27 1.27))))
        )
      )
    )
    (symbol "power:GND" (power) (pin_names (offset 0)) (in_bom yes) (on_board yes)
      (property "Reference" "#PWR" (at 0 -6.35 0)
        (effects (font (size 1.27 1.27)) hide)
      )
      (property "Value" "GND" (at 0 -3.81 0)
        (effects (font (size 1.27 1.27)))
      )
      (property "Footprint" "" (at 0 0 0)
        (effects (font (size 1.27 1.27)) hide)
      )
      (property "Datasheet" "" (at 0 0 0)
        (effects (font (size 1.27 1.27)) hide)
      )
      (property "ki_keywords" "global power" (at 0 0 0)
        (effects (font (size 1.27 1.27)) hide)
      )
      (property "ki_description" "Power symbol creates a global label with name \"GND\" , ground" (at 0 0 0)
        (effects (font (size 1.27 1.27)) hide)
      )
      (symbol "GND_0_1"
        (polyline
          (pts
            (xy 0 0)
            (xy 0 -1.27)
            (xy 1.27 -1.27)
            (xy 0 -2.54)
            (xy -1.27 -1.27)
            (xy 0 -1.27)
          )
          (stroke (width 0) (type default))
          (fill (type none))
        )
      )
      (symbol "GND_1_1"
        (pin power_in line (at 0 0 270) (length 0) hide
          (name "GND" (effects (font (size 1.27 1.27))))
          (number "1" (effects (font (size 1.27 1.27))))
        )
      )
    )
  )

  (junction (at 99.06 68.58) (diameter 0) (color 0 0 0 0)
    (uuid bf19a9b1-9a8b-4b5d-956a-b1e147830d9e)
  )

  (bus_entry (at 118.11 78.74) (size -2.54 2.54)
    (stroke (width 0) (type default))
    (uuid 727325ea-5c55-4b29-9114-15aeb169adc3)
  )
  (bus_entry (at 118.11 83.82) (size -2.54 2.54)
    (stroke (width 0) (type default))
    (uuid d598359e-4a98-40b6-b9bc-846c7165d0bf)
  )

  (wire (pts (xy 99.06 68.58) (xy 99.06 76.2))
    (stroke (width 0) (type default))
    (uuid 1a3e3136-29fa-40f8-8f50-8a6d8fc7702d)
  )
  (wire (pts (xy 86.36 69.85) (xy 86.36 68.58))
    (stroke (width 0) (type default))
    (uuid 22a7ceca-3395-4091-8a6b-3ebf039bc759)
  )
  (wire (pts (xy 86.36 74.93) (xy 86.36 76.2))
    (stroke (width 0) (type default))
    (uuid 3aca1432-9093-4c49-863f-eb0f58435d20)
  )
  (bus (pts (xy 118.11 73.66) (xy 118.11 78.74))
    (stroke (width 0) (type default))
    (uuid 49fa7057-d9bb-43b2-b776-a27ea50c5db9)
  )

  (wire (pts (xy 86.36 68.58) (xy 99.06 68.58))
    (stroke (width 0) (type default))
    (uuid 4f062a0e-5e5c-4850-ba36-a618a345e8be)
  )
  (wire (pts (xy 99.06 91.44) (xy 99.06 92.71))
    (stroke (width 0) (type default))
    (uuid 6c21b36a-7884-406c-ab7c-fd21527525b8)
  )
  (bus (pts (xy 118.11 78.74) (xy 118.11 83.82))
    (stroke (width 0) (type default))
    (uuid 79e90463-3769-4755-a98c-9d682ab9222c)
  )
  (bus (pts (xy 120.65 73.66) (xy 118.11 73.66))
    (stroke (width 0) (type default))
    (uuid 9feaadfd-dc51-4f25-8fe0-dcef0b453d7c)
  )

  (wire (pts (xy 115.57 86.36) (xy 106.68 86.36))
    (stroke (width 0) (type default))
    (uuid a7920576-d6fc-46fb-a48e-4539293d7e09)
  )
  (wire (pts (xy 99.06 67.31) (xy 99.06 68.58))
    (stroke (width 0) (type default))
    (uuid d4cf9e3e-bb3d-482f-8294-259d28a89d20)
  )
  (wire (pts (xy 115.57 81.28) (xy 106.68 81.28))
    (stroke (width 0) (type default))
    (uuid df3ef314-1cf4-48c0-aab2-f1f3846c3ed4)
  )

  (label "SCL" (at 106.68 86.36 0) (fields_autoplaced)
    (effects (font (size 1.27 1.27)) (justify left bottom))
    (uuid 3388705f-626a-4ccf-8e8d-340538e40250)
  )
  (label "SDA" (at 106.68 81.28 0) (fields_autoplaced)
    (effects (font (size 1.27 1.27)) (justify left bottom))
    (uuid a1ba899b-392b-4efe-8a5b-4781160a4a81)
  )

  (hierarchical_label "{I2C}" (shape bidirectional) (at 120.65 73.66 0) (fields_autoplaced)
    (effects (font (size 1.27 1.27)) (justify left))
    (uuid 4f53a60e-33c0-45a5-a9c4-ad6ad6bd1d70)
  )

  (symbol (lib_id "power:+3.3V") (at 99.06 67.31 0) (unit 1)
    (in_bom yes) (on_board yes) (dnp no) (fields_autoplaced)
    (uuid 29d73692-d0a6-45cc-9e58-ccd57a5dc096)
    (property "Reference" "#PWR0101" (at 99.06 71.12 0)
      (effects (font (size 1.27 1.27)) hide)
    )
    (property "Value" "+3.3V" (at 99.06 62.23 0)
      (effects (font (size 1.27 1.27)))
    )
    (property "Footprint" "" (at 99.06 67.31 0)
      (effects (font (size 1.27 1.27)) hide)
    )
    (property "Datasheet" "" (at 99.06 67.31 0)
      (effects (font (size 1.27 1.27)) hide)
    )
    (pin "1" (uuid d977c8f0-3ced-4445-bf3f-16e36bc86530))
    (instances
      (project "beacon"
        (path "/7a8979f1-6b1a-43d1-8fd3-94964ec61fbf/21c9b862-8912-41f5-834e-6f47fc851213"
          (reference "#PWR0101") (unit 1)
        )
      )
    )
  )

  (symbol (lib_id "power:GND") (at 99.06 92.71 0) (unit 1)
    (in_bom yes) (on_board yes) (dnp no) (fields_autoplaced)
    (uuid 47d0604d-7ce5-4230-9925-7b28c19d553f)
    (property "Reference" "#PWR0102" (at 99.06 99.06 0)
      (effects (font (size 1.27 1.27)) hide)
    )
    (property "Value" "GND" (at 99.06 97.79 0)
      (effects (font (size 1.27 1.27)))
    )
    (property "Footprint" "" (at 99.06 92.71 0)
      (effects (font (size 1.27 1.27)) hide)
    )
    (property "Datasheet" "" (at 99.06 92.71 0)
      (effects (font (size 1.27 1.27)) hide)
    )
    (pin "1" (uuid 9818649e-a454-44cc-824c-2c8418cf6c09))
    (instances
      (project "beacon"
        (path "/7a8979f1-6b1a-43d1-8fd3-94964ec61fbf/21c9b862-8912-41f5-834e-6f47fc851213"
          (reference "#PWR0102") (unit 1)
        )
      )
    )
  )

  (symbol (lib_id "power:GND") (at 86.36 76.2 0) (unit 1)
    (in_bom yes) (on_board yes) (dnp no) (fields_autoplaced)
    (uuid 5e936b15-dfd3-4662-b572-ce8a410176f4)
    (property "Reference" "#PWR0100" (at 86.36 82.55 0)
      (effects (font (size 1.27 1.27)) hide)
    )
    (property "Value" "GND" (at 86.36 81.28 0)
      (effects (font (size 1.27 1.27)))
    )
    (property "Footprint" "" (at 86.36 76.2 0)
      (effects (font (size 1.27 1.27)) hide)
    )
    (property "Datasheet" "" (at 86.36 76.2 0)
      (effects (font (size 1.27 1.27)) hide)
    )
    (pin "1" (uuid c608f613-abda-4787-8d01-e1a16b13a7bc))
    (instances
      (project "beacon"
        (path "/7a8979f1-6b1a-43d1-8fd3-94964ec61fbf/21c9b862-8912-41f5-834e-6f47fc851213"
          (reference "#PWR0100") (unit 1)
        )
      )
    )
  )

  (symbol (lib_id "Device:C_Small") (at 86.36 72.39 0) (unit 1)
    (in_bom yes) (on_board yes) (dnp no) (fields_autoplaced)
    (uuid b21682bb-6081-4ba2-b7ce-70aae55eb8d5)
    (property "Reference" "C77" (at 88.9 71.1262 0)
      (effects (font (size 1.27 1.27)) (justify left))
    )
    (property "Value" "C_Small" (at 88.9 73.6662 0)
      (effects (font (size 1.27 1.27)) (justify left))
    )
    (property "Footprint" "Capacitor_SMD:C_0402_1005Metric" (at 86.36 72.39 0)
      (effects (font (size 1.27 1.27)) hide)
    )
    (property "Datasheet" "~" (at 86.36 72.39 0)
      (effects (font (size 1.27 1.27)) hide)
    )
    (pin "1" (uuid dd515091-5c92-41d6-9fe5-dcb2aa725e3b))
    (pin "2" (uuid 0dae2982-591a-488f-8b9a-eefeaf1b65b9))
    (instances
      (project "beacon"
        (path "/7a8979f1-6b1a-43d1-8fd3-94964ec61fbf/21c9b862-8912-41f5-834e-6f47fc851213"
          (reference "C77") (unit 1)
        )
      )
    )
  )

  (symbol (lib_id "Security:ATECC608A-SSHDA") (at 99.06 83.82 0) (unit 1)
    (in_bom yes) (on_board yes) (dnp no) (fields_autoplaced)
    (uuid c17ccdb7-0dae-4f0d-aa2d-3c6d556d1ada)
    (property "Reference" "U14" (at 92.71 82.5499 0)
      (effects (font (size 1.27 1.27)) (justify right))
    )
    (property "Value" "ATECC608A-SSHDA" (at 92.71 85.0899 0)
      (effects (font (size 1.27 1.27)) (justify right))
    )
    (property "Footprint" "Package_SO:SOIC-8_3.9x4.9mm_P1.27mm" (at 99.06 83.82 0)
      (effects (font (size 1.27 1.27)) hide)
    )
    (property "Datasheet" "http://ww1.microchip.com/downloads/en/DeviceDoc/ATECC608A-CryptoAuthentication-Device-Summary-Data-Sheet-DS40001977B.pdf" (at 102.87 77.47 0)
      (effects (font (size 1.27 1.27)) hide)
    )
    (pin "1" (uuid 7a2e9296-f09b-4629-8674-27db0f6912d5))
    (pin "2" (uuid 5ab2c562-d696-49e4-b46d-f84cf4dccc20))
    (pin "3" (uuid ad7d6607-3b9b-43ba-9baa-8d1f9179053b))
    (pin "4" (uuid 33f32516-997f-40b4-9030-73badb051e9f))
    (pin "5" (uuid fa3d8cd4-6ec4-4c5b-8b59-23f4ccc5a7ce))
    (pin "6" (uuid 1bb87234-66b3-4896-a1d0-39fbc67b3ec1))
    (pin "7" (uuid 3435a576-99c6-43fb-970a-c95ed04c81ae))
    (pin "8" (uuid 7543c178-3bdf-42a7-9300-5ff239de9edd))
    (instances
      (project "beacon"
        (path "/7a8979f1-6b1a-43d1-8fd3-94964ec61fbf/21c9b862-8912-41f5-834e-6f47fc851213"
          (reference "U14") (unit 1)
        )
      )
    )
  )
)
