(kicad_symbol_lib (version 20211014) (generator kicad_symbol_editor)
  (symbol "LR1110" (in_bom yes) (on_board yes)
    (property "Reference" "U" (id 0) (at -15.24 24.13 0)
      (effects (font (size 1.27 1.27)))
    )
    (property "Value" "LR1110" (id 1) (at 10.16 -24.13 0)
      (effects (font (size 1.27 1.27)))
    )
    (property "Footprint" "" (id 2) (at 1.27 -2.54 0)
      (effects (font (size 1.27 1.27)) hide)
    )
    (property "Datasheet" "" (id 3) (at 1.27 -2.54 0)
      (effects (font (size 1.27 1.27)) hide)
    )
    (symbol "LR1110_0_1"
      (rectangle (start -15.24 21.59) (end 16.51 -21.59)
        (stroke (width 0) (type default) (color 0 0 0 0))
        (fill (type none))
      )
    )
    (symbol "LR1110_1_1"
      (pin power_in line (at 0 -24.13 90) (length 2.54)
        (name "GND" (effects (font (size 1.27 1.27))))
        (number "0" (effects (font (size 1.27 1.27))))
      )
      (pin output line (at 19.05 11.43 180) (length 2.54)
        (name "VR_PA" (effects (font (size 1.27 1.27))))
        (number "1" (effects (font (size 1.27 1.27))))
      )
      (pin bidirectional line (at -17.78 -2.54 0) (length 2.54)
        (name "DIO8" (effects (font (size 1.27 1.27))))
        (number "10" (effects (font (size 1.27 1.27))))
      )
      (pin bidirectional line (at -17.78 0 0) (length 2.54)
        (name "DIO7" (effects (font (size 1.27 1.27))))
        (number "11" (effects (font (size 1.27 1.27))))
      )
      (pin power_out line (at 6.35 24.13 270) (length 2.54)
        (name "VREG" (effects (font (size 1.27 1.27))))
        (number "12" (effects (font (size 1.27 1.27))))
      )
      (pin power_in line (at 0 -24.13 90) (length 2.54) hide
        (name "GND" (effects (font (size 1.27 1.27))))
        (number "13" (effects (font (size 1.27 1.27))))
      )
      (pin unspecified line (at 10.16 24.13 270) (length 2.54)
        (name "DCC_SW" (effects (font (size 1.27 1.27))))
        (number "14" (effects (font (size 1.27 1.27))))
      )
      (pin power_in line (at -2.54 24.13 270) (length 2.54)
        (name "VBAT" (effects (font (size 1.27 1.27))))
        (number "15" (effects (font (size 1.27 1.27))))
      )
      (pin no_connect line (at -5.08 -24.13 90) (length 2.54)
        (name "" (effects (font (size 1.27 1.27))))
        (number "16" (effects (font (size 1.27 1.27))))
      )
      (pin no_connect line (at -5.08 -24.13 90) (length 2.54) hide
        (name "" (effects (font (size 1.27 1.27))))
        (number "17" (effects (font (size 1.27 1.27))))
      )
      (pin no_connect line (at -5.08 -24.13 90) (length 2.54) hide
        (name "" (effects (font (size 1.27 1.27))))
        (number "18" (effects (font (size 1.27 1.27))))
      )
      (pin bidirectional line (at -17.78 2.54 0) (length 2.54)
        (name "DIO6" (effects (font (size 1.27 1.27))))
        (number "19" (effects (font (size 1.27 1.27))))
      )
      (pin input line (at 0 24.13 270) (length 2.54)
        (name "VBAT_RF" (effects (font (size 1.27 1.27))))
        (number "2" (effects (font (size 1.27 1.27))))
      )
      (pin bidirectional line (at -17.78 5.08 0) (length 2.54)
        (name "DIO5" (effects (font (size 1.27 1.27))))
        (number "20" (effects (font (size 1.27 1.27))))
      )
      (pin bidirectional line (at -17.78 7.62 0) (length 2.54)
        (name "DIO4" (effects (font (size 1.27 1.27))))
        (number "21" (effects (font (size 1.27 1.27))))
      )
      (pin bidirectional line (at -17.78 10.16 0) (length 2.54)
        (name "DIO3" (effects (font (size 1.27 1.27))))
        (number "22" (effects (font (size 1.27 1.27))))
      )
      (pin bidirectional line (at -17.78 12.7 0) (length 2.54)
        (name "DIO2" (effects (font (size 1.27 1.27))))
        (number "23" (effects (font (size 1.27 1.27))))
      )
      (pin bidirectional line (at -17.78 15.24 0) (length 2.54)
        (name "DIO1" (effects (font (size 1.27 1.27))))
        (number "24" (effects (font (size 1.27 1.27))))
      )
      (pin bidirectional line (at -17.78 17.78 0) (length 2.54)
        (name "DIO0/BUSY" (effects (font (size 1.27 1.27))))
        (number "25" (effects (font (size 1.27 1.27))))
      )
      (pin bidirectional line (at 19.05 -15.24 180) (length 2.54)
        (name "RFIO_HF" (effects (font (size 1.27 1.27))))
        (number "26" (effects (font (size 1.27 1.27))))
      )
      (pin input line (at 19.05 -10.16 180) (length 2.54)
        (name "RFI_N_LF1" (effects (font (size 1.27 1.27))))
        (number "27" (effects (font (size 1.27 1.27))))
      )
      (pin input line (at 19.05 -7.62 180) (length 2.54)
        (name "RFI_P_LF1" (effects (font (size 1.27 1.27))))
        (number "28" (effects (font (size 1.27 1.27))))
      )
      (pin input line (at 19.05 -2.54 180) (length 2.54)
        (name "RFI_N_LF0" (effects (font (size 1.27 1.27))))
        (number "29" (effects (font (size 1.27 1.27))))
      )
      (pin output line (at 19.05 -20.32 180) (length 2.54)
        (name "VTCXO" (effects (font (size 1.27 1.27))))
        (number "3" (effects (font (size 1.27 1.27))))
      )
      (pin input line (at 19.05 0 180) (length 2.54)
        (name "RFI_P_LF0" (effects (font (size 1.27 1.27))))
        (number "30" (effects (font (size 1.27 1.27))))
      )
      (pin output line (at 19.05 5.08 180) (length 2.54)
        (name "RFO_LP_LF" (effects (font (size 1.27 1.27))))
        (number "31" (effects (font (size 1.27 1.27))))
      )
      (pin output line (at 19.05 7.62 180) (length 2.54)
        (name "RFO_HP_LF" (effects (font (size 1.27 1.27))))
        (number "32" (effects (font (size 1.27 1.27))))
      )
      (pin unspecified line (at -17.78 -17.78 0) (length 2.54)
        (name "XTA" (effects (font (size 1.27 1.27))))
        (number "4" (effects (font (size 1.27 1.27))))
      )
      (pin unspecified line (at -17.78 -20.32 0) (length 2.54)
        (name "XTB" (effects (font (size 1.27 1.27))))
        (number "5" (effects (font (size 1.27 1.27))))
      )
      (pin input line (at -17.78 -13.97 0) (length 2.54)
        (name "NRESET" (effects (font (size 1.27 1.27))))
        (number "6" (effects (font (size 1.27 1.27))))
      )
      (pin bidirectional line (at -17.78 -10.16 0) (length 2.54)
        (name "32k_P/DIO11" (effects (font (size 1.27 1.27))))
        (number "7" (effects (font (size 1.27 1.27))))
      )
      (pin bidirectional line (at -17.78 -7.62 0) (length 2.54)
        (name "32k_N/DIO10" (effects (font (size 1.27 1.27))))
        (number "8" (effects (font (size 1.27 1.27))))
      )
      (pin bidirectional line (at -17.78 -5.08 0) (length 2.54)
        (name "DIO9" (effects (font (size 1.27 1.27))))
        (number "9" (effects (font (size 1.27 1.27))))
      )
    )
  )
)
