(kicad_symbol_lib (version 20211014) (generator kicad_symbol_editor)
  (symbol "BBQ10KBD" (pin_names (offset 1.016)) (in_bom yes) (on_board yes)
    (property "Reference" "U" (id 0) (at 10.16 19.05 0)
      (effects (font (size 1.524 1.524)) (justify right))
    )
    (property "Value" "BBQ10KBD" (id 1) (at 1.27 -19.05 0)
      (effects (font (size 1.524 1.524)))
    )
    (property "Footprint" "" (id 2) (at 0 -8.89 0)
      (effects (font (size 1.524 1.524)) hide)
    )
    (property "Datasheet" "" (id 3) (at 0 -8.89 0)
      (effects (font (size 1.524 1.524)) hide)
    )
    (symbol "BBQ10KBD_0_1"
      (rectangle (start -10.16 17.78) (end 10.16 -17.78)
        (stroke (width 0) (type default) (color 0 0 0 0))
        (fill (type background))
      )
    )
    (symbol "BBQ10KBD_1_1"
      (pin power_in line (at -15.24 -15.24 0) (length 5.08)
        (name "GND" (effects (font (size 1.27 1.27))))
        (number "1" (effects (font (size 1.27 1.27))))
      )
      (pin output line (at 15.24 10.16 180) (length 5.08)
        (name "COL3" (effects (font (size 1.27 1.27))))
        (number "10" (effects (font (size 1.27 1.27))))
      )
      (pin passive line (at -15.24 -15.24 0) (length 5.08) hide
        (name "GND" (effects (font (size 1.27 1.27))))
        (number "11" (effects (font (size 1.27 1.27))))
      )
      (pin passive line (at -15.24 -15.24 0) (length 5.08) hide
        (name "GND" (effects (font (size 1.27 1.27))))
        (number "12" (effects (font (size 1.27 1.27))))
      )
      (pin passive line (at -15.24 -15.24 0) (length 5.08) hide
        (name "GND" (effects (font (size 1.27 1.27))))
        (number "13" (effects (font (size 1.27 1.27))))
      )
      (pin passive line (at -15.24 -15.24 0) (length 5.08) hide
        (name "GND" (effects (font (size 1.27 1.27))))
        (number "14" (effects (font (size 1.27 1.27))))
      )
      (pin passive line (at -15.24 -15.24 0) (length 5.08) hide
        (name "GND" (effects (font (size 1.27 1.27))))
        (number "15" (effects (font (size 1.27 1.27))))
      )
      (pin passive line (at -15.24 -15.24 0) (length 5.08) hide
        (name "GND" (effects (font (size 1.27 1.27))))
        (number "16" (effects (font (size 1.27 1.27))))
      )
      (pin output line (at 15.24 7.62 180) (length 5.08)
        (name "COL4" (effects (font (size 1.27 1.27))))
        (number "17" (effects (font (size 1.27 1.27))))
      )
      (pin output line (at 15.24 -5.08 180) (length 5.08)
        (name "ROW3" (effects (font (size 1.27 1.27))))
        (number "18" (effects (font (size 1.27 1.27))))
      )
      (pin output line (at 15.24 5.08 180) (length 5.08)
        (name "COL5" (effects (font (size 1.27 1.27))))
        (number "19" (effects (font (size 1.27 1.27))))
      )
      (pin input line (at -15.24 15.24 0) (length 5.08)
        (name "MIC_VDD" (effects (font (size 1.27 1.27))))
        (number "2" (effects (font (size 1.27 1.27))))
      )
      (pin output line (at 15.24 -7.62 180) (length 5.08)
        (name "ROW4" (effects (font (size 1.27 1.27))))
        (number "20" (effects (font (size 1.27 1.27))))
      )
      (pin output line (at 15.24 -10.16 180) (length 5.08)
        (name "ROW5" (effects (font (size 1.27 1.27))))
        (number "21" (effects (font (size 1.27 1.27))))
      )
      (pin output line (at 15.24 -12.7 180) (length 5.08)
        (name "ROW6" (effects (font (size 1.27 1.27))))
        (number "22" (effects (font (size 1.27 1.27))))
      )
      (pin input line (at -15.24 2.54 0) (length 5.08)
        (name "LEDK_2_3" (effects (font (size 1.27 1.27))))
        (number "23" (effects (font (size 1.27 1.27))))
      )
      (pin power_in line (at -15.24 7.62 0) (length 5.08)
        (name "LEDA_3_4" (effects (font (size 1.27 1.27))))
        (number "24" (effects (font (size 1.27 1.27))))
      )
      (pin input line (at -15.24 5.08 0) (length 5.08)
        (name "LEDK_1_4" (effects (font (size 1.27 1.27))))
        (number "25" (effects (font (size 1.27 1.27))))
      )
      (pin power_in line (at -15.24 10.16 0) (length 5.08)
        (name "LEDA_1_2" (effects (font (size 1.27 1.27))))
        (number "26" (effects (font (size 1.27 1.27))))
      )
      (pin output line (at 15.24 -15.24 180) (length 5.08)
        (name "ROW7" (effects (font (size 1.27 1.27))))
        (number "27" (effects (font (size 1.27 1.27))))
      )
      (pin passive line (at -15.24 -15.24 0) (length 5.08) hide
        (name "GND" (effects (font (size 1.27 1.27))))
        (number "28" (effects (font (size 1.27 1.27))))
      )
      (pin output line (at -15.24 -2.54 0) (length 5.08)
        (name "MIC" (effects (font (size 1.27 1.27))))
        (number "3" (effects (font (size 1.27 1.27))))
      )
      (pin power_in line (at -15.24 -12.7 0) (length 5.08)
        (name "AGND" (effects (font (size 1.27 1.27))))
        (number "4" (effects (font (size 1.27 1.27))))
      )
      (pin passive line (at -15.24 -15.24 0) (length 5.08) hide
        (name "GND" (effects (font (size 1.27 1.27))))
        (number "5" (effects (font (size 1.27 1.27))))
      )
      (pin output line (at 15.24 0 180) (length 5.08)
        (name "ROW1" (effects (font (size 1.27 1.27))))
        (number "6" (effects (font (size 1.27 1.27))))
      )
      (pin output line (at 15.24 15.24 180) (length 5.08)
        (name "COL1" (effects (font (size 1.27 1.27))))
        (number "7" (effects (font (size 1.27 1.27))))
      )
      (pin output line (at 15.24 -2.54 180) (length 5.08)
        (name "ROW2" (effects (font (size 1.27 1.27))))
        (number "8" (effects (font (size 1.27 1.27))))
      )
      (pin output line (at 15.24 12.7 180) (length 5.08)
        (name "COL2" (effects (font (size 1.27 1.27))))
        (number "9" (effects (font (size 1.27 1.27))))
      )
    )
  )
)
